<?xml version="1.0" encoding="UTF-8" standalone="no"?>
<!DOCTYPE svg PUBLIC "-//W3C//DTD SVG 1.1//EN"
 "http://www.w3.org/Graphics/SVG/1.1/DTD/svg11.dtd">
<!-- Generated by graphviz version 2.48.0 (0)
 -->
<!-- Pages: 1 -->
<svg width="230pt" height="354pt"
 viewBox="0.00 0.00 230.35 353.96" xmlns="http://www.w3.org/2000/svg" xmlns:xlink="http://www.w3.org/1999/xlink">
<g id="graph0" class="graph" transform="scale(1 1) rotate(0) translate(4 349.96)">
<polygon fill="white" stroke="transparent" points="-4,4 -4,-349.96 226.35,-349.96 226.35,4 -4,4"/>
<text text-anchor="middle" x="111.17" y="-7.8" font-family="Times,serif" font-size="14.00">Initial tree</text>
<!-- p0x604000000010 -->
<g id="node1" class="node">
<title>p0x604000000010</title>
<ellipse fill="none" stroke="black" cx="66.99" cy="-319.09" rx="32.55" ry="26.74"/>
<text text-anchor="middle" x="66.99" y="-322.89" font-family="Times,serif" font-size="14.00">0</text>
<text text-anchor="middle" x="66.99" y="-307.89" font-family="Times,serif" font-size="14.00">root</text>
</g>
<!-- p0x604000000050 -->
<g id="node2" class="node">
<title>p0x604000000050</title>
<ellipse fill="none" stroke="black" cx="29.99" cy="-229.35" rx="27.65" ry="26.74"/>
<text text-anchor="middle" x="29.99" y="-233.15" font-family="Times,serif" font-size="14.00">&#45;10</text>
<text text-anchor="middle" x="29.99" y="-218.15" font-family="Times,serif" font-size="14.00">foo</text>
</g>
<!-- p0x604000000010&#45;&gt;p0x604000000050 -->
<g id="edge1" class="edge">
<title>p0x604000000010&#45;&gt;p0x604000000050</title>
<path fill="none" stroke="black" d="M56.49,-293.18C51.36,-281.02 45.22,-266.46 40.14,-254.41"/>
</g>
<!-- p0x6040000000d0 -->
<g id="node4" class="node">
<title>p0x6040000000d0</title>
<ellipse fill="none" stroke="black" cx="104.99" cy="-229.35" rx="28.98" ry="26.74"/>
<text text-anchor="middle" x="104.99" y="-233.15" font-family="Times,serif" font-size="14.00">10</text>
<text text-anchor="middle" x="104.99" y="-218.15" font-family="Times,serif" font-size="14.00">baz</text>
</g>
<!-- p0x604000000010&#45;&gt;p0x6040000000d0 -->
<g id="edge3" class="edge">
<title>p0x604000000010&#45;&gt;p0x6040000000d0</title>
<path fill="none" stroke="black" d="M77.58,-293.65C82.85,-281.48 89.2,-266.81 94.46,-254.66"/>
</g>
<!-- p0x604000000090 -->
<g id="node3" class="node">
<title>p0x604000000090</title>
<ellipse fill="none" stroke="black" cx="28.99" cy="-139.61" rx="28.98" ry="26.74"/>
<text text-anchor="middle" x="28.99" y="-143.41" font-family="Times,serif" font-size="14.00">&#45;5</text>
<text text-anchor="middle" x="28.99" y="-128.41" font-family="Times,serif" font-size="14.00">bar</text>
</g>
<!-- p0x604000000050&#45;&gt;p0x604000000090 -->
<g id="edge2" class="edge">
<title>p0x604000000050&#45;&gt;p0x604000000090</title>
<path fill="none" stroke="black" d="M29.69,-202.03C29.56,-190.82 29.42,-177.78 29.29,-166.61"/>
</g>
<!-- p0x604000000110 -->
<g id="node5" class="node">
<title>p0x604000000110</title>
<ellipse fill="none" stroke="black" cx="104.99" cy="-139.61" rx="28.98" ry="26.74"/>
<text text-anchor="middle" x="104.99" y="-143.41" font-family="Times,serif" font-size="14.00">5</text>
<text text-anchor="middle" x="104.99" y="-128.41" font-family="Times,serif" font-size="14.00">fizz</text>
</g>
<!-- p0x6040000000d0&#45;&gt;p0x604000000110 -->
<g id="edge4" class="edge">
<title>p0x6040000000d0&#45;&gt;p0x604000000110</title>
<path fill="none" stroke="black" d="M104.99,-202.03C104.99,-190.82 104.99,-177.78 104.99,-166.61"/>
</g>
<!-- p0x604000000150 -->
<g id="node7" class="node">
<title>p0x604000000150</title>
<ellipse fill="none" stroke="black" cx="186.99" cy="-139.61" rx="35.21" ry="26.74"/>
<text text-anchor="middle" x="186.99" y="-143.41" font-family="Times,serif" font-size="14.00">15</text>
<text text-anchor="middle" x="186.99" y="-128.41" font-family="Times,serif" font-size="14.00">buzz</text>
</g>
<!-- p0x6040000000d0&#45;&gt;p0x604000000150 -->
<g id="edge6" class="edge">
<title>p0x6040000000d0&#45;&gt;p0x604000000150</title>
<path fill="none" stroke="black" d="M123.6,-208.44C136.55,-194.59 153.79,-176.14 167.03,-161.97"/>
</g>
<!-- p0x604000000190 -->
<g id="node6" class="node">
<title>p0x604000000190</title>
<ellipse fill="none" stroke="black" cx="104.99" cy="-49.87" rx="39.7" ry="26.74"/>
<text text-anchor="middle" x="104.99" y="-53.67" font-family="Times,serif" font-size="14.00">7</text>
<text text-anchor="middle" x="104.99" y="-38.67" font-family="Times,serif" font-size="14.00">pippo</text>
</g>
<!-- p0x604000000110&#45;&gt;p0x604000000190 -->
<g id="edge5" class="edge">
<title>p0x604000000110&#45;&gt;p0x604000000190</title>
<path fill="none" stroke="black" d="M104.99,-112.29C104.99,-101.08 104.99,-88.04 104.99,-76.87"/>
</g>
</g>
</svg>
