<?xml version="1.0" encoding="UTF-8" standalone="no"?>
<!DOCTYPE svg PUBLIC "-//W3C//DTD SVG 1.1//EN"
 "http://www.w3.org/Graphics/SVG/1.1/DTD/svg11.dtd">
<!-- Generated by graphviz version 2.48.0 (0)
 -->
<!-- Pages: 1 -->
<svg width="228pt" height="444pt"
 viewBox="0.00 0.00 227.93 443.70" xmlns="http://www.w3.org/2000/svg" xmlns:xlink="http://www.w3.org/1999/xlink">
<g id="graph0" class="graph" transform="scale(1 1) rotate(0) translate(4 439.7)">
<polygon fill="white" stroke="transparent" points="-4,4 -4,-439.7 223.93,-439.7 223.93,4 -4,4"/>
<text text-anchor="middle" x="109.97" y="-7.8" font-family="Times,serif" font-size="14.00">After freeing the snapshot</text>
<!-- p0x6040000001d0 -->
<g id="node1" class="node">
<title>p0x6040000001d0</title>
<ellipse fill="none" stroke="black" cx="64.58" cy="-408.83" rx="32.55" ry="26.74"/>
<text text-anchor="middle" x="64.58" y="-412.63" font-family="Times,serif" font-size="14.00">0</text>
<text text-anchor="middle" x="64.58" y="-397.63" font-family="Times,serif" font-size="14.00">tree</text>
</g>
<!-- p0x604000000310 -->
<g id="node2" class="node">
<title>p0x604000000310</title>
<ellipse fill="none" stroke="black" cx="27.58" cy="-319.09" rx="27.65" ry="26.74"/>
<text text-anchor="middle" x="27.58" y="-322.89" font-family="Times,serif" font-size="14.00">&#45;10</text>
<text text-anchor="middle" x="27.58" y="-307.89" font-family="Times,serif" font-size="14.00">foo</text>
</g>
<!-- p0x6040000001d0&#45;&gt;p0x604000000310 -->
<g id="edge1" class="edge">
<title>p0x6040000001d0&#45;&gt;p0x604000000310</title>
<path fill="none" stroke="black" d="M54.07,-382.92C48.95,-370.76 42.8,-356.2 37.72,-344.15"/>
</g>
<!-- p0x604000000210 -->
<g id="node4" class="node">
<title>p0x604000000210</title>
<ellipse fill="none" stroke="black" cx="102.58" cy="-319.09" rx="28.98" ry="26.74"/>
<text text-anchor="middle" x="102.58" y="-322.89" font-family="Times,serif" font-size="14.00">10</text>
<text text-anchor="middle" x="102.58" y="-307.89" font-family="Times,serif" font-size="14.00">baz</text>
</g>
<!-- p0x6040000001d0&#45;&gt;p0x604000000210 -->
<g id="edge3" class="edge">
<title>p0x6040000001d0&#45;&gt;p0x604000000210</title>
<path fill="none" stroke="black" d="M75.16,-383.39C80.43,-371.22 86.79,-356.55 92.05,-344.4"/>
</g>
<!-- p0x604000000350 -->
<g id="node3" class="node">
<title>p0x604000000350</title>
<ellipse fill="none" stroke="black" cx="27.58" cy="-229.35" rx="27.65" ry="26.74"/>
<text text-anchor="middle" x="27.58" y="-233.15" font-family="Times,serif" font-size="14.00">&#45;5</text>
<text text-anchor="middle" x="27.58" y="-218.15" font-family="Times,serif" font-size="14.00">car</text>
</g>
<!-- p0x604000000310&#45;&gt;p0x604000000350 -->
<g id="edge2" class="edge">
<title>p0x604000000310&#45;&gt;p0x604000000350</title>
<path fill="none" stroke="black" d="M27.58,-291.77C27.58,-280.56 27.58,-267.52 27.58,-256.35"/>
</g>
<!-- p0x604000000250 -->
<g id="node5" class="node">
<title>p0x604000000250</title>
<ellipse fill="none" stroke="black" cx="102.58" cy="-229.35" rx="28.98" ry="26.74"/>
<text text-anchor="middle" x="102.58" y="-233.15" font-family="Times,serif" font-size="14.00">5</text>
<text text-anchor="middle" x="102.58" y="-218.15" font-family="Times,serif" font-size="14.00">fizz</text>
</g>
<!-- p0x604000000210&#45;&gt;p0x604000000250 -->
<g id="edge4" class="edge">
<title>p0x604000000210&#45;&gt;p0x604000000250</title>
<path fill="none" stroke="black" d="M102.58,-291.77C102.58,-280.56 102.58,-267.52 102.58,-256.35"/>
</g>
<!-- p0x604000000150 -->
<g id="node8" class="node">
<title>p0x604000000150</title>
<ellipse fill="none" stroke="black" cx="184.58" cy="-229.35" rx="35.21" ry="26.74"/>
<text text-anchor="middle" x="184.58" y="-233.15" font-family="Times,serif" font-size="14.00">15</text>
<text text-anchor="middle" x="184.58" y="-218.15" font-family="Times,serif" font-size="14.00">buzz</text>
</g>
<!-- p0x604000000210&#45;&gt;p0x604000000150 -->
<g id="edge7" class="edge">
<title>p0x604000000210&#45;&gt;p0x604000000150</title>
<path fill="none" stroke="black" d="M121.18,-298.18C134.13,-284.33 151.38,-265.88 164.61,-251.71"/>
</g>
<!-- p0x604000000290 -->
<g id="node6" class="node">
<title>p0x604000000290</title>
<ellipse fill="none" stroke="black" cx="102.58" cy="-139.61" rx="39.7" ry="26.74"/>
<text text-anchor="middle" x="102.58" y="-143.41" font-family="Times,serif" font-size="14.00">7</text>
<text text-anchor="middle" x="102.58" y="-128.41" font-family="Times,serif" font-size="14.00">pippo</text>
</g>
<!-- p0x604000000250&#45;&gt;p0x604000000290 -->
<g id="edge5" class="edge">
<title>p0x604000000250&#45;&gt;p0x604000000290</title>
<path fill="none" stroke="black" d="M102.58,-202.03C102.58,-190.82 102.58,-177.78 102.58,-166.61"/>
</g>
<!-- p0x6040000002d0 -->
<g id="node7" class="node">
<title>p0x6040000002d0</title>
<ellipse fill="none" stroke="black" cx="102.58" cy="-49.87" rx="37.45" ry="26.74"/>
<text text-anchor="middle" x="102.58" y="-53.67" font-family="Times,serif" font-size="14.00">6</text>
<text text-anchor="middle" x="102.58" y="-38.67" font-family="Times,serif" font-size="14.00">pluto</text>
</g>
<!-- p0x604000000290&#45;&gt;p0x6040000002d0 -->
<g id="edge6" class="edge">
<title>p0x604000000290&#45;&gt;p0x6040000002d0</title>
<path fill="none" stroke="black" d="M102.58,-112.29C102.58,-101.08 102.58,-88.04 102.58,-76.87"/>
</g>
</g>
</svg>
